{
  "project": {
    "version": "1.0.0-alpha.3",
    "name": "core-ui"
  },
  "apps": [
    {
      "root": "src",
      "outDir": "dist",
      "assets": [
        "assets",
        "favicon.ico",
         { "glob": "**/*", "input": "../node_modules/tinymce/", "output": "./assets/tinymce/" }
      ],
      "index": "index.html",
      "main": "main.ts",
      "polyfills": "polyfills.ts",
      "test": "test.ts",
      "tsconfig": "tsconfig.json",
      "prefix": "app",
      "mobile": false,
      "styles": [
         "scss/style.scss"
      ],
      "scripts": [
        "../node_modules/clipboard/dist/clipboard.js",
        "../node_modules/tinymce/tinymce.js",
        "../node_modules/tinymce/themes/modern/theme.js",
        "../node_modules/tinymce/plugins/link/plugin.js",
        "../node_modules/tinymce/plugins/paste/plugin.js",
        "../node_modules/tinymce/plugins/table/plugin.js"
      ],
      "environmentSource": "environments/environment.ts",
      "environments": {
        "dev": "environments/environment.ts",
        "prod": "environments/environment.prod.ts"
      }
    }
  ],
  "e2e": {
    "protractor": {
      "config": "./protractor.conf.js"
    }
  },
  "lint": [
    {
      "files": "src/**/*.ts",
      "project": "src/tsconfig.json"
    },
    {
      "files": "e2e/**/*.ts",
      "project": "e2e/tsconfig.json"
    }
  ],
  "test": {
    "karma": {
      "config": "./karma.conf.js"
    }
  },
  "defaults": {
    "styleExt": "scss",
    "prefixInterfaces": false
  }
}
